-------------------------------------------------------------------------------
Test set: lt.bulevicius.validator.DateValidatorTest
-------------------------------------------------------------------------------
Tests run: 1, Failures: 0, Errors: 0, Skipped: 0, Time elapsed: 0.005 s - in lt.bulevicius.validator.DateValidatorTest
