C:\Projects\vivendor\loansProject\tttt\src\main\java\lt\bulevicius\web\TransactionController.java
C:\Projects\vivendor\loansProject\tttt\src\main\java\lt\bulevicius\config\ApplicationConfig.java
C:\Projects\vivendor\loansProject\tttt\src\main\java\lt\bulevicius\TransactionType.java
C:\Projects\vivendor\loansProject\tttt\src\main\java\lt\bulevicius\validator\DateValidator.java
C:\Projects\vivendor\loansProject\tttt\src\main\java\lt\bulevicius\exception\RecordNotFoundException.java
C:\Projects\vivendor\loansProject\tttt\src\main\java\lt\bulevicius\model\TransactionEntity.java
C:\Projects\vivendor\loansProject\tttt\src\main\java\lt\bulevicius\service\TransactionService.java
C:\Projects\vivendor\loansProject\tttt\src\main\java\lt\bulevicius\Application.java
C:\Projects\vivendor\loansProject\tttt\src\main\java\lt\bulevicius\repository\TransactionRepository.java
